Project 1: Wrangling, Exploration, Visualization
…
joined_guns_spend <- inner_join(guns, schoolspend, by = "state")

Here, I inner joined my datasets by state. The schoolspend dataset originally had 50 observations and the guns dataset had 1173. With an inner join, the observations were 1150 because the guns dataset included observations from Washington D.C. which is not included in the schoolspend dataframe. From the guns set, 23 District of Columbia rows were dropped and each unique ID represented the data for a state for that year. For the schoolspend dataset, each unique ID represents the information for a single state. I chose to do an inner join because there are columns in both datasets that I am interested in looking at. I wanted to retain the expendpp from the schoolspend dataframe and violent from the guns dataframe. Since the inner_join() function retains all the original columns and just drops the observations that dont match, I felt it would be a good fit for my purposes.

Wrangling

# Converting 'expendpp' into normal dollars
joined_guns_spend

## # A tibble: 1,150 x 22
##     X1.x  year violent murder robbery prisoners  afam  cauc  male population
##    <dbl> <dbl>   <dbl>  <dbl>   <dbl>     <dbl> <dbl> <dbl> <dbl>      <dbl>
##  1     1  1977    414.   14.2    96.8        83  8.38  55.1  18.2       3.78
##  2     2  1978    419.   13.3    99.1        94  8.35  55.1  18.0       3.83
##  3     3  1979    413.   13.2   110.        144  8.33  55.1  17.8       3.87
##  4     4  1980    448.   13.2   132.        141  8.41  54.9  17.7       3.90
##  5     5  1981    470.   11.9   126.        149  8.48  54.9  17.7       3.92
##  6     6  1982    448.   10.6   112         183  8.51  54.9  17.5       3.93
##  7     7  1983    416     9.2    98.4       215  8.55  54.8  17.4       3.93
##  8     8  1984    431.    9.4    96.1       243  8.56  54.8  17.1       3.95
##  9     9  1985    458.    9.8   105.        256  8.56  54.7  16.9       3.97
## 10    10  1986    558    10.1   112.        267  8.57  54.5  16.6       3.99
## #  with 1,140 more rows, and 12 more variables: income <dbl>, density <dbl>,
## #   state <chr>, law <chr>, X1.y <dbl>, expendpp <dbl>, ptratio <dbl>,
## #   tsalary <dbl>, perctakers <dbl>, verbal <dbl>, math <dbl>, total <dbl>
…
Here, I replaced the spaces between states whose names are made up of two words just to keep everything consistent and straightforward. I converted the expendpp into dollars because it is easier for me to conceptualize it that way and it also lets me compare it to other columns without having to mess with the inconsistent units and measurements. Ive also decided to take a subset of the fullset because not all the years line up in both datasets so I chose a year that had overlap and I only selected the columns which I would be doing anything with. Additionally, I am more interested in seeing the differences between states rather than across time for the sake of consistency.

# How far teacher salary per state is from mean per capital
# income per state
year94_set <- year94_set %>% mutate(tsalary = tsalary * 1000)
year94_set <- year94_set %>% group_by(state) %>% mutate(tsalarydist = abs(income - 
    tsalary))
year94_set %>% group_by(state) %>% arrange(-tsalarydist)

## # A tibble: 50 x 15
## # Groups:   state [50]
##     year violent murder robbery prisoners population income state law   expendpp
##    <dbl>   <dbl>  <dbl>   <dbl>     <dbl>      <dbl>  <dbl> <chr> <chr>    <dbl>
##  1  1994    766.    6.3   146.        446      0.601 16970. Alas no        8963
##  2  1994    966.   11.1   477.        354     18.2   17713. New_ no        9623
##  3  1994    456.    6.6   188.        320      3.27  20518. Conn no        8817
##  4  1994    427.    5.9   187.        216     12.0   15365. Penn yes       7109
##  5  1994    614.    5     288         301      7.92  18739. New_ no        9774
##  6  1994    766.    9.8   229.        414      9.58  15363. Mich no        6994
##  7  1994    376.    4.1    87.3       172      0.993 15296. Rhod no        7469
##  8  1994   1013    11.8   357.        368     31.3   15774. Cali no        4992
##  9  1994    521.    4.9   138.        166      3.09  14395. Oreg yes       6436
## 10  1994    270.    4.5   113.        166      5.10  14582. Wisc no        6930
## #  with 40 more rows, and 5 more variables: ptratio <dbl>, tsalary <dbl>,
## #   perctakers <dbl>, total <dbl>, tsalarydist <dbl>
…
## # A tibble: 2 x 2
##   law   `max(robbery)`
##   <chr>          <dbl>
## 1 no              477.
## 2 yes             329.

In each of these, I calculated the basic descriptives for violence, robbery, and murder based on whether a state had a carrying law in place in 1994. For violence, it seemed that there was a higher average in states that did not have a carrying law than states that do. Murders seem to have a higher average in states that dont have a carrying law versus states that do. This also seems to be the case for robberies as well. It seems that generally speaking, based on these crimes, the rate of them tend to be higher in states that did not have a carrying law.

# Portion of prisoners to population per state
year94_set <- year94_set %>% mutate(populationBig = population * 
    1e+06)
year94_set %>% group_by(state) %>% summarise(prisonerRatio = prisoners/populationBig)

## # A tibble: 50 x 2
##    state       prisonerRatio
##    <chr>               <dbl>
##  1 Alabama         0.000102 
##  2 Alaska          0.000743 
##  3 Arizona         0.000104 
##  4 Arkansas        0.000133 
##  5 California      0.0000118
##  6 Colorado        0.0000717
##  7 Connecticut     0.0000979
##  8 Delaware        0.000556 
##  9 Florida         0.0000275
## 10 Georgia         0.0000549
## #  with 40 more rows
…
2.724413

16.8

13.8

24.3

In this chunk, I calculated various descriptives for school-related variables based on the states gun law status. For expenditure, states with no carrying laws spend only slightly more than states that do. This is also reflected in average SAT scores between carrying states and non-carrying states. The ratio of teachers to students also seem to be the same. There isnt much correlation between carrying law and how well a states schools perform or how much they spend. I have also included a kable() table but I didnt do one for each one because it makes my script lag badly.

# table of counts
year94_set %>% group_by(state) %>% summarize(n())

## # A tibble: 50 x 2
##    state       `n()`
##    <chr>       <int>
##  1 Alabama         1
##  2 Alaska          1
##  3 Arizona         1
##  4 Arkansas        1
##  5 California      1
##  6 Colorado        1
##  7 Connecticut     1
##  8 Delaware        1
##  9 Florida         1
## 10 Georgia         1
## #  with 40 more rows
…
